…
$pathway_enzyme
# A tibble: 15,198 x 2
   enzyme pathway_id
   <chr>  <chr>     
 1 P00734 SMP0000278
 2 P00748 SMP0000278
 3 P02452 SMP0000278
 4 P03952 SMP0000278
 5 P03951 SMP0000278
 6 P00740 SMP0000278
 7 P00451 SMP0000278
 8 P12259 SMP0000278
 9 P00742 SMP0000278
10 P02671 SMP0000278
# … with 15,188 more rows

$reactions
# A tibble: 3,362 x 6
   sequence left_drugbank_id left_drugbank_name right_drugbank_id right_drugbank_name         parent_key
   <chr>    <chr>            <chr>              <chr>             <chr>                       <chr>     
 1 1        DB00047          Insulin glargine   DBMET00786        A21-Gly-des-B30-Thr-insulin DB00047   
 2 1        DB00047          Insulin glargine   DBMET00787        A21-Gly-insulin             DB00047   
 3 1        DB00091          Cyclosporine       DBMET02955        Cyclosporine AM-4N          DB00091   
 4 1        DB00091          Cyclosporine       DBMET02217        Cyclosporine M-1 (AM-9)     DB00091   
 5 1        DB00091          Cyclosporine       DBMET00359        Cyclosporine M-17 (AM-1)    DB00091   
 6 1        DB00115          Cyanocobalamin     DB03614           Mecobalamin                 DB00115   
 7 1        DB00118          Ademetionine       DBMET00503        Cysteine                    DB00118   
 8 1        DB00118          Ademetionine       DBMET00506        Methionine                  DB00118   
 9 1        DB00118          Ademetionine       DBMET00508        Homocysteine                DB00118   
10 1        DB00118          Ademetionine       DBMET00514        S-Adenosylhomocysteine      DB00118   
# … with 3,352 more rows

$reactions_enzymes
# A tibble: 3,117 x 3
   `drugbank-id` name                                                   `uniprot-id`
   <chr>         <chr>                                                  <chr>       
 1 BE0002638     Cytochrome P450 3A4                                    P08684      
 2 BE0002362     Cytochrome P450 3A5                                    P20815      
 3 BE0002638     Cytochrome P450 3A4                                    P08684      
 4 BE0002362     Cytochrome P450 3A5                                    P20815      
 5 BE0002638     Cytochrome P450 3A4                                    P08684      
 6 BE0002362     Cytochrome P450 3A5                                    P20815      
 7 BE0002240     Glutamine synthetase                                   P15104      
 8 BE0000003     Glutaminase liver isoform, mitochondrial               Q9UI32      
 9 BE0000825     Glutaminase kidney isoform, mitochondrial              O94925      
10 BE0000618     Glycine dehydrogenase [decarboxylating], mitochondrial P23378      
# … with 3,107 more rows

$snp_effects
# A tibble: 211 x 9
   `protein-name`               `gene-symbol` `uniprot-id` `rs-id`  allele   `defining-change` description                                                   `pubmed-id` parent_key
   <chr>                        <chr>         <chr>        <chr>    <chr>    <chr>             <chr>                                                         <chr>       <chr>     
 1 Low affinity immunoglobulin… FCGR2A        P12318       rs18012… ""       H allelle         Patients with this genotype may have increased progression-f… 17704420    DB00002   
 2 Low affinity immunoglobulin… FCGR3A        P08637       rs396991 ""       G > T             Patients with this genotype have increased progression-free … 17704420    DB00002   
 3 Interferon lambda-3          IFNL3         Q8IZI9       rs12979… ""       C > T             Patients with this genotype in IFNL3 have a reduced likeliho… 24096968    DB00008   
 4 Interferon lambda-3          IFNL3         Q8IZI9       rs12979… ""       C > T             Patients with this genotype in IFNL3 have a reduced likeliho… 24096968    DB00022   
 5 Low affinity immunoglobulin… FCGR3A        P08637       rs18012… ""       CC Allele (homoz… Patients with this genotype have increased ACR20 response wh… 18930989    DB00065   
 6 Low affinity immunoglobulin… FCGR3A        P08637       rs396991 "FCGR3A" T > G             Patients with this genotype have increased frequency of anti… 16609067    DB00073   
 7 Kinesin-like protein KIF6    KIF6          Q6ZMV9       rs20455  ""       C Allele          Patients with this genotype have a greater reduction in risk… 18222353    DB00175   
 8 3-hydroxy-3-methylglutaryl-… HMGCR         P04035       rs17244… ""       T Allele          Patients with this genotype have a lesser reduction in LDL c… 15199031    DB00175   
 9 Cytochrome P450 2D6          CYP2D6        P10635       rs35742… "CYP2D6… 2549delA          The presence of this polymorphism in CYP2D6 is associated wi… 25974703    DB00176   
10 Cytochrome P450 2D6          CYP2D6        P10635       rs38920… "CYP2D6… A allele          The presence of this polymorphism in CYP2D6 is associated wi… 25974703    DB00176   
# … with 201 more rows

$snp_adverse_reactions
# A tibble: 113 x 9
   `protein-name`               `gene-symbol` `uniprot-id` `rs-id`   allele    `adverse-reactio… description                                                 `pubmed-id` parent_key
   <chr>                        <chr>         <chr>        <chr>     <chr>     <chr>             <chr>                                                       <chr>       <chr>     
 1 Receptor tyrosine-protein k… ERBB2         P04626       "rs11362… ""        G Allele, hetero… Patients with this genotype have increased risk of cardiot… "17693647"  DB00072   
 2 Cytochrome P450 1A2          CYP1A2        P05177       "rs76255… ""        C allele          Patients with this genotype have increased risk of a non-f… "16522833"  DB00201   
 3 Glutamate receptor ionotrop… GRIK2         Q13002       "rs25182… ""        C Allele, homozy… Patients with this genotype have increased frequency of su… "17898344"  DB00215   
 4 Glutamate receptor 3         GRIA3         P42263       "rs48254… ""        G allele          Patients with this genotype have increased frequency of su… "17898344"  DB00215   
 5 Cyclic AMP-responsive eleme… CREB1         P16220       "rs46756… ""        T allele, homozy… Male patients with this genotype have an increased risk of… "17548750"  DB00215   
 6 HLA class I histocompatibil… HLA-B         P30464       ""        "HLA-B*1… HLA-B*15          The presence of this genotype in HLA-B is associated with … "25099164"  DB00252   
 7 DNA polymerase subunit gamm… POLG          P54098       "rs11399… "A467T"   G > A             The presence of this polymorphism in POLG may indicate an … ""          DB00313   
 8 DNA polymerase subunit gamm… POLG          P54098       "rs11399… "W748S"   G > C             The presence of this polymorphism in POLG may indicate an … ""          DB00313   
 9 ATP-binding cassette sub-fa… ABCG2         Q9UNQ0       "rs22311… ""        A allele          Patients with this genotype have an increased risk of diar… "17148776"  DB00317   
10 Cytochrome P450 2C19         CYP2C19       P33261       "rs42442… "CYP2C19… G > A/C           Patients with this genotype have reduced metabolism of clo… "15483195"  DB00349   
# … with 103 more rows

$food_interactions
# A tibble: 2,290 x 2
   food_interaction                                                                                                                                        drugbank_id
   <chr>                                                                                                                                                   <chr>      
 1 Avoid herbs and supplements with anticoagulant/antiplatelet activity. Examples include garlic, ginger, bilberry, danshen, piracetam, and ginkgo biloba. DB00001    
 2 Avoid echinacea.                                                                                                                                        DB00006    
 3 Avoid herbs and supplements with anticoagulant/antiplatelet activity. Examples include garlic, ginger, bilberry, danshen, piracetam, and ginkgo biloba. DB00006    
 4 Drink plenty of fluids.                                                                                                                                 DB00008    
 5 Avoid herbs and supplements with anticoagulant/antiplatelet activity. Examples include garlic, ginger, bilberry, danshen, piracetam, and ginkgo biloba. DB00009    
 6 Avoid alcohol.                                                                                                                                          DB00011    
 7 Avoid herbs and supplements with anticoagulant/antiplatelet activity. Examples include garlic, ginger, bilberry, danshen, piracetam, and ginkgo biloba. DB00013    
 8 Avoid herbs and supplements with anticoagulant/antiplatelet activity. Examples include garlic, ginger, bilberry, danshen, piracetam, and ginkgo biloba. DB00015    
 9 Avoid herbs and supplements with anticoagulant/antiplatelet activity. Examples include garlic, ginger, bilberry, danshen, piracetam, and ginkgo biloba. DB00029    
10 Avoid alcohol. Alcohol may impair blood glucose control.                                                                                                DB00030    
# … with 2,280 more rows

$pdb_entries
# A tibble: 223,557 x 2
   pdb_entry drugbank_id
   <chr>     <chr>      
 1 1a3g      DB00114    
 2 1a50      DB00114    
 3 1a5a      DB00114    
 4 1a5b      DB00114    
 5 1a5s      DB00114    
 6 1aam      DB00114    
 7 1aaw      DB00114    
 8 1ahe      DB00114    
 9 1ahf      DB00114    
10 1ahg      DB00114    
# … with 223,547 more rows

$ahfs_codes
# A tibble: 1,782 x 2
   ahfs_code   drugbank_id
   <chr>       <chr>      
 1 10:00.00    DB00002    
 2 44:00.00    DB00003    
 3 92:36.00    DB00005    
 4 20:12.04.12 DB00006    
 5 10:00.00    DB00007    
 6 68:18.08    DB00007    
 7 08:18.20    DB00008    
 8 20:12.20    DB00009    
 9 20:16.00    DB00012    
10 68:18.00    DB00014    
# … with 1,772 more rows

$affected_organisms
# A tibble: 3,200 x 2
   affected_organism        drugbank_id
   <chr>                    <chr>      
 1 Humans and other mammals DB00001    
 2 Humans and other mammals DB00002    
 3 Humans and other mammals DB00003    
 4 Humans and other mammals DB00004    
 5 Humans and other mammals DB00005    
 6 Humans and other mammals DB00006    
 7 Humans and other mammals DB00007    
 8 Humans and other mammals DB00008    
 9 Humans and other mammals DB00009    
10 Humans and other mammals DB00010    
# … with 3,190 more rows

$groups
# A tibble: 16,931 x 2
   group           `drugbank-id`
   <chr>           <chr>        
 1 approved        DB00001      
 2 approved        DB00002      
 3 approved        DB00003      
 4 approved        DB00004      
 5 investigational DB00004      
 6 approved        DB00005      
 7 investigational DB00005      
 8 approved        DB00006      
 9 investigational DB00006      
10 approved        DB00007      
# … with 16,921 more rows

$products
# A tibble: 375,316 x 19
   name  labeller `ndc-id` `ndc-product-co… `dpd-id` `ema-product-co… `ema-ma-number` `started-market… `ended-marketin… `dosage-form` strength route `fda-applicatio… generic
   <chr> <chr>    <chr>    <chr>            <chr>    <chr>            <chr>           <chr>            <chr>            <chr>         <chr>    <chr> <chr>            <chr>  
 1 Refl… Celgene… ""       ""               ""       "EMEA/H/C/00012… "EU/1/97/035/0… 1997-03-13       "2012-07-27"     Injection, s… 50 mg    Intr… ""               false  
 2 Refl… Celgene… ""       ""               ""       "EMEA/H/C/00012… "EU/1/97/035/0… 1997-03-13       "2012-07-27"     Injection, s… 50 mg    Intr… ""               false  
 3 Refl… Celgene… ""       ""               ""       "EMEA/H/C/00012… "EU/1/97/035/0… 1997-03-13       "2012-07-27"     Injection, s… 20 mg    Intr… ""               false  
 4 Refl… Celgene… ""       ""               ""       "EMEA/H/C/00012… "EU/1/97/035/0… 1997-03-13       "2012-07-27"     Injection, s… 20 mg    Intr… ""               false  
 5 Refl… Bayer    ""       "50419-150"      ""       ""               ""              1998-03-06       "2013-06-30"     Powder        50 mg/1… Intr… "NDA020807"      false  
 6 Refl… Bayer    ""       ""               "022409… ""               ""              2000-01-31       "2013-07-26"     Powder, for … 50 mg    Intr… ""               false  
 7 Erbi… Merck K… ""       ""               ""       "EMEA/H/C/00055… "EU/1/04/281/0… 2004-06-29       ""               Injection, s… 5 mg/ml  Intr… ""               false  
 8 Erbi… Merck K… ""       ""               ""       "EMEA/H/C/00055… "EU/1/04/281/0… 2004-06-29       ""               Injection, s… 5 mg/ml  Intr… ""               false  
 9 Erbi… ImClone… ""       "66733-948"      ""       ""               ""              2004-02-12       ""               Solution      2 mg/1mL Intr… "BLA125084"      false  
10 Erbi… ImClone… ""       "66733-958"      ""       ""               ""              2007-10-02       ""               Solution      2 mg/1mL Intr… "BLA125084"      false  
# … with 375,306 more rows, and 5 more variables: `over-the-counter` <chr>, approved <chr>, country <chr>, source <chr>, parent_key <chr>

$external_links
# A tibble: 3,088 x 3
   resource  url                                               parent_key
   <chr>     <chr>                                             <chr>     
 1 RxList    http://www.rxlist.com/cgi/generic/lepirudin.htm   DB00001   
 2 Drugs.com http://www.drugs.com/cdi/lepirudin.html           DB00001   
 3 RxList    http://www.rxlist.com/cgi/generic3/erbitux.htm    DB00002   
 4 Drugs.com http://www.drugs.com/cdi/cetuximab.html           DB00002   
 5 RxList    http://www.rxlist.com/cgi/generic/pulmozyme.htm   DB00003   
 6 Drugs.com http://www.drugs.com/cdi/dornase-alfa.html        DB00003   
 7 RxList    http://www.rxlist.com/cgi/generic2/denileukin.htm DB00004   
 8 Drugs.com http://www.drugs.com/cdi/denileukin-diftitox.html DB00004   
 9 RxList    http://www.rxlist.com/cgi/generic/etanercept.htm  DB00005   
10 Drugs.com http://www.drugs.com/cdi/etanercept.html          DB00005   
# … with 3,078 more rows

$salts
# A tibble: 2,505 x 8
   `drugbank-id` name                           unii         `cas-number`  inchikey                      `average-mass` `monoisotopic-mass` parent_key
   <chr>         <chr>                          <chr>        <chr>         <chr>                         <chr>          <chr>               <chr>     
 1 DBSALT000105  Leuprolide acetate             "37JNS02E7V" "74381-53-6"  "YFDMUNOZURYOCP-XNHQSDQCSA-N" 1269.473       1268.666591578      DB00007   
 2 DBSALT001439  Sermorelin acetate             "00IBG87IQW" "114466-38-5" ""                            NA             NA                  DB00010   
 3 DBSALT000093  Goserelin acetate              "6YUU2PV0U8" "145781-92-6" "IKDXDQDKCZPQSZ-JHYYTBFNSA-N" 1329.4624      1328.662568858      DB00014   
 4 DBSALT001733  Insulin human zinc suspension  ""           ""            ""                            NA             NA                  DB00030   
 5 DBSALT001734  NPH insulin                    ""           "53027-39-7"  ""                            NA             NA                  DB00030   
 6 DBSALT001154  Desmopressin acetate           "XB13HYU18U" "62357-86-2"  "YNKFCNRZZPFMEX-XHPDKPNGSA-N" 1183.32        1182.479779327      DB00035   
 7 DBSALT000044  Desmopressin acetate anhydrous "1K12647SFC" "62288-83-9"  "MLSVJHOYXJGGTR-IFHOVBQLSA-N" 1129.269       1128.448084334      DB00035   
 8 DBSALT001413  Glucagon hydrochloride         "1H87NVF4DB" "19179-82-9"  ""                            NA             NA                  DB00040   
 9 DBSALT000021  Cetrorelix acetate             "W9Y8L7GP4C" "130143-01-0" "DTPVYWHLQLAXFT-SMCUOGPFSA-N" 1551.17        1549.7120771        DB00050   
10 DBSALT002464  Argipressin                    "Y4907O6MFD" "113-79-1"    "KBZOIRJILGZLEJ-LGYYRGKSSA-N" 1084.24        1083.437854941      DB00067   
# … with 2,495 more rows

$articles_drug
# A tibble: 13,681 x 4
   `ref-id` `pubmed-id` citation                                                                                                                                         parent_key
   <chr>    <chr>       <chr>                                                                                                                                            <chr>     
 1 A1       16244762    Smythe MA, Stephens JL, Koerber JM, Mattson JC: A comparison of lepirudin and argatroban outcomes. Clin Appl Thromb Hemost. 2005 Oct;11(4):371-… DB00001   
 2 A2       16690967    Tardy B, Lecompte T, Boelhen F, Tardy-Poncet B, Elalamy I, Morange P, Gruel Y, Wolf M, Francois D, Racadot E, Camarasa P, Blouch MT, Nguyen F, … DB00001   
 3 A3       16241940    Lubenow N, Eichler P, Lietz T, Greinacher A: Lepirudin in patients with heparin-induced thrombocytopenia - results of the third prospective stu… DB00001   
 4 A4       10480573    Hosokawa N, Yamamoto S, Uehara Y, Hori M, Tsuchiya KS: Effect of thiazinotrienomycin B, an ansamycin antibiotic, on the function of epidermal g… DB00002   
 5 A5       10601294    Wakita H, Takigawa M: Activation of epidermal growth factor receptor promotes late terminal differentiation of cell-matrix interaction-disrupte… DB00002   
 6 A6       10628369    Suwa T, Ueda M, Jinno H, Ozawa S, Kitagawa Y, Ando N, Kitajima M: Epidermal growth factor receptor-dependent cytotoxic effect of anti-EGFR anti… DB00002   
 7 A7       11408594    Burke P, Schooler K, Wiley HS: Regulation of epidermal growth factor receptor signaling by endocytosis and intracellular trafficking. Mol Biol … DB00002   
 8 A8       11431346    Viloria-Petit A, Crombet T, Jothy S, Hicklin D, Bohlen P, Schlaeppi JM, Rak J, Kerbel RS: Acquired resistance to the antitumor effect of epider… DB00002   
 9 A9       11752352    Chen X, Ji ZL, Chen YZ: TTD: Therapeutic Target Database. Nucleic Acids Res. 2002 Jan 1;30(1):412-5.                                             DB00002   
10 A10      15269308    Schrag D: The price tag on progress--chemotherapy for colorectal cancer. N Engl J Med. 2004 Jul 22;351(4):317-9.                                 DB00002   
# … with 13,671 more rows
…
